(export (version D)
  (design
    (source /home/cl/projects/d1_nebenuhr_shield/d1_nebenuhr_shield.sch)
    (date "Tue Aug  7 21:33:52 2018")
    (tool "Eeschema 4.0.7")
    (sheet (number 1) (name /) (tstamps /)
      (title_block
        (title Nebenuhr)
        (company "Christian Loitsch")
        (rev 2.0)
        (date 2018-06-23)
        (source d1_nebenuhr_shield.sch)
        (comment (number 1) (value ""))
        (comment (number 2) (value ""))
        (comment (number 3) (value ""))
        (comment (number 4) (value "")))))
  (components
    (comp (ref R7)
      (value R180)
      (footprint Resistors_SMD:R_1206_HandSoldering)
      (libsource (lib d1_nebenuhr_shield-cache) (part R))
      (sheetpath (names /) (tstamps /))
      (tstamp 5B24C96F))
    (comp (ref R8)
      (value R180)
      (footprint Resistors_SMD:R_1206_HandSoldering)
      (libsource (lib d1_nebenuhr_shield-cache) (part R))
      (sheetpath (names /) (tstamps /))
      (tstamp 5B24CA27))
    (comp (ref R2)
      (value R1k)
      (footprint Resistors_SMD:R_0603_HandSoldering)
      (libsource (lib d1_nebenuhr_shield-cache) (part R))
      (sheetpath (names /) (tstamps /))
      (tstamp 5B24CA82))
    (comp (ref R6)
      (value R1k)
      (footprint Resistors_SMD:R_0603_HandSoldering)
      (libsource (lib d1_nebenuhr_shield-cache) (part R))
      (sheetpath (names /) (tstamps /))
      (tstamp 5B24CAB3))
    (comp (ref R1)
      (value R1k)
      (footprint Resistors_SMD:R_0603_HandSoldering)
      (libsource (lib d1_nebenuhr_shield-cache) (part R))
      (sheetpath (names /) (tstamps /))
      (tstamp 5B24CAD4))
    (comp (ref R5)
      (value R1k)
      (footprint Resistors_SMD:R_0603_HandSoldering)
      (libsource (lib d1_nebenuhr_shield-cache) (part R))
      (sheetpath (names /) (tstamps /))
      (tstamp 5B24CF7D))
    (comp (ref Q2)
      (value DMHC3025LSD-13)
      (footprint digikey-footprints:SOIC-8_W3.9mm)
      (datasheet https://www.diodes.com/assets/Datasheets/DMHC3025LSD.pdf)
      (fields
        (field (name Digi-Key_PN) DMHC3025LSD-13DICT-ND)
        (field (name MPN) DMHC3025LSD-13)
        (field (name Category) "Discrete Semiconductor Products")
        (field (name Family) "Transistors - FETs, MOSFETs - Arrays")
        (field (name DK_Datasheet_Link) https://www.diodes.com/assets/Datasheets/DMHC3025LSD.pdf)
        (field (name DK_Detail_Page) /product-detail/en/diodes-incorporated/DMHC3025LSD-13/DMHC3025LSD-13DICT-ND/3677986)
        (field (name Description) "MOSFET 2N/2P-CH 30V 8SO")
        (field (name Manufacturer) "Diodes Incorporated")
        (field (name Status) Active))
      (libsource (lib d1_nebenuhr_shield-cache) (part DMHC3025LSD-13))
      (sheetpath (names /) (tstamps /))
      (tstamp 5B250CEF))
    (comp (ref D1)
      (value LED)
      (footprint LEDs:LED_1206_HandSoldering)
      (libsource (lib d1_nebenuhr_shield-cache) (part LED))
      (sheetpath (names /) (tstamps /))
      (tstamp 5B251B07))
    (comp (ref D2)
      (value LED)
      (footprint LEDs:LED_1206_HandSoldering)
      (libsource (lib d1_nebenuhr_shield-cache) (part LED))
      (sheetpath (names /) (tstamps /))
      (tstamp 5B251BAF))
    (comp (ref J3)
      (value Screw_Terminal_01x02)
      (footprint D1_mini:2pin_screw_terminal)
      (libsource (lib d1_nebenuhr_shield-cache) (part Screw_Terminal_01x02))
      (sheetpath (names /) (tstamps /))
      (tstamp 5B255C67))
    (comp (ref J1)
      (value Screw_Terminal_01x01)
      (footprint D1_mini:2pin_screw_terminal)
      (libsource (lib d1_nebenuhr_shield-cache) (part Screw_Terminal_01x01))
      (sheetpath (names /) (tstamps /))
      (tstamp 5B255DFA))
    (comp (ref S1)
      (value B3U-1000P)
      (footprint Buttons_Switches_SMD:SW_SPST_EVPBF)
      (datasheet http://omronfs.omron.com/en_US/ecb/products/pdf/en-b3u.pdf)
      (fields
        (field (name Digi-Key_PN) SW1020CT-ND)
        (field (name MPN) B3U-1000P)
        (field (name Category) Switches)
        (field (name Family) "Tactile Switches")
        (field (name DK_Datasheet_Link) http://omronfs.omron.com/en_US/ecb/products/pdf/en-b3u.pdf)
        (field (name DK_Detail_Page) /product-detail/en/omron-electronics-inc-emc-div/B3U-1000P/SW1020CT-ND/1534357)
        (field (name Description) "SWITCH TACTILE SPST-NO 0.05A 12V")
        (field (name Manufacturer) "Omron Electronics Inc-EMC Div")
        (field (name Status) Active))
      (libsource (lib d1_nebenuhr_shield-cache) (part B3U-1000P))
      (sheetpath (names /) (tstamps /))
      (tstamp 5B259CEC))
    (comp (ref J5)
      (value Screw_Terminal_01x02)
      (footprint D1_mini:2pin_screw_terminal)
      (libsource (lib d1_nebenuhr_shield-cache) (part Screw_Terminal_01x02))
      (sheetpath (names /) (tstamps /))
      (tstamp 5B2E8C2F))
    (comp (ref Q4)
      (value BC817)
      (footprint TO_SOT_Packages_SMD:SOT-23_Handsoldering)
      (libsource (lib d1_nebenuhr_shield-cache) (part BC817))
      (sheetpath (names /) (tstamps /))
      (tstamp 5B44F601))
    (comp (ref Q5)
      (value BC817)
      (footprint TO_SOT_Packages_SMD:SOT-23_Handsoldering)
      (libsource (lib d1_nebenuhr_shield-cache) (part BC817))
      (sheetpath (names /) (tstamps /))
      (tstamp 5B44F690))
    (comp (ref R9)
      (value R1k)
      (footprint Resistors_SMD:R_0603_HandSoldering)
      (libsource (lib d1_nebenuhr_shield-cache) (part R))
      (sheetpath (names /) (tstamps /))
      (tstamp 5B44FC5B))
    (comp (ref R10)
      (value R1k)
      (footprint Resistors_SMD:R_0603_HandSoldering)
      (libsource (lib d1_nebenuhr_shield-cache) (part R))
      (sheetpath (names /) (tstamps /))
      (tstamp 5B44FEB6))
    (comp (ref J6)
      (value Conn_01x08)
      (footprint Pin_Headers:Pin_Header_Straight_1x08_Pitch2.54mm)
      (libsource (lib d1_nebenuhr_shield-cache) (part Conn_01x08))
      (sheetpath (names /) (tstamps /))
      (tstamp 5B450B6D))
    (comp (ref J7)
      (value Conn_01x08)
      (footprint Pin_Headers:Pin_Header_Straight_1x08_Pitch2.54mm)
      (libsource (lib d1_nebenuhr_shield-cache) (part Conn_01x08))
      (sheetpath (names /) (tstamps /))
      (tstamp 5B450C78))
    (comp (ref Q1)
      (value BC817)
      (footprint TO_SOT_Packages_SMD:SOT-23_Handsoldering)
      (libsource (lib d1_nebenuhr_shield-cache) (part BC817))
      (sheetpath (names /) (tstamps /))
      (tstamp 5B6962D4))
    (comp (ref Q3)
      (value BC817)
      (footprint TO_SOT_Packages_SMD:SOT-23_Handsoldering)
      (libsource (lib d1_nebenuhr_shield-cache) (part BC817))
      (sheetpath (names /) (tstamps /))
      (tstamp 5B696399))
    (comp (ref R3)
      (value R10)
      (footprint Resistors_SMD:R_1206_HandSoldering)
      (libsource (lib d1_nebenuhr_shield-cache) (part R))
      (sheetpath (names /) (tstamps /))
      (tstamp 5B69FBDE)))
  (libparts
    (libpart (lib d1_nebenuhr_shield-cache) (part B3U-1000P)
      (fields
        (field (name Reference) S)
        (field (name Value) B3U-1000P)
        (field (name Footprint) digikey-footprints:Switch_Tactile_SMD_B3U-1000P)
        (field (name Datasheet) http://omronfs.omron.com/en_US/ecb/products/pdf/en-b3u.pdf)
        (field (name Digi-Key_PN) SW1020CT-ND)
        (field (name MPN) B3U-1000P)
        (field (name Category) Switches)
        (field (name Family) "Tactile Switches")
        (field (name DK_Datasheet_Link) http://omronfs.omron.com/en_US/ecb/products/pdf/en-b3u.pdf)
        (field (name DK_Detail_Page) /product-detail/en/omron-electronics-inc-emc-div/B3U-1000P/SW1020CT-ND/1534357)
        (field (name Description) "SWITCH TACTILE SPST-NO 0.05A 12V")
        (field (name Manufacturer) "Omron Electronics Inc-EMC Div")
        (field (name Status) Active))
      (pins
        (pin (num 1) (name ~) (type passive))
        (pin (num 2) (name ~) (type passive))))
    (libpart (lib d1_nebenuhr_shield-cache) (part BC817)
      (aliases
        (alias BC818)
        (alias BC847)
        (alias BC848)
        (alias BC849)
        (alias BC850)
        (alias MMBT3904))
      (footprints
        (fp SOT?23*))
      (fields
        (field (name Reference) Q)
        (field (name Value) BC817)
        (field (name Footprint) TO_SOT_Packages_SMD:SOT-23))
      (pins
        (pin (num 1) (name B) (type input))
        (pin (num 2) (name E) (type passive))
        (pin (num 3) (name C) (type passive))))
    (libpart (lib d1_nebenuhr_shield-cache) (part Conn_01x08)
      (footprints
        (fp Connector*:*_??x*mm*)
        (fp Connector*:*1x??x*mm*)
        (fp Pin?Header?Straight?1X*)
        (fp Pin?Header?Angled?1X*)
        (fp Socket?Strip?Straight?1X*)
        (fp Socket?Strip?Angled?1X*))
      (fields
        (field (name Reference) J)
        (field (name Value) Conn_01x08))
      (pins
        (pin (num 1) (name Pin_1) (type passive))
        (pin (num 2) (name Pin_2) (type passive))
        (pin (num 3) (name Pin_3) (type passive))
        (pin (num 4) (name Pin_4) (type passive))
        (pin (num 5) (name Pin_5) (type passive))
        (pin (num 6) (name Pin_6) (type passive))
        (pin (num 7) (name Pin_7) (type passive))
        (pin (num 8) (name Pin_8) (type passive))))
    (libpart (lib d1_nebenuhr_shield-cache) (part DMHC3025LSD-13)
      (fields
        (field (name Reference) Q)
        (field (name Value) DMHC3025LSD-13)
        (field (name Footprint) digikey-footprints:SOIC-8_W3.9mm)
        (field (name Datasheet) https://www.diodes.com/assets/Datasheets/DMHC3025LSD.pdf)
        (field (name Digi-Key_PN) DMHC3025LSD-13DICT-ND)
        (field (name MPN) DMHC3025LSD-13)
        (field (name Category) "Discrete Semiconductor Products")
        (field (name Family) "Transistors - FETs, MOSFETs - Arrays")
        (field (name DK_Datasheet_Link) https://www.diodes.com/assets/Datasheets/DMHC3025LSD.pdf)
        (field (name DK_Detail_Page) /product-detail/en/diodes-incorporated/DMHC3025LSD-13/DMHC3025LSD-13DICT-ND/3677986)
        (field (name Description) "MOSFET 2N/2P-CH 30V 8SO")
        (field (name Manufacturer) "Diodes Incorporated")
        (field (name Status) Active))
      (pins
        (pin (num 1) (name N1G) (type input))
        (pin (num 2) (name N1D/P1D) (type passive))
        (pin (num 3) (name N1S/N2S) (type power_in))
        (pin (num 4) (name N2G) (type input))
        (pin (num 5) (name P2G) (type input))
        (pin (num 6) (name N2D/P2D) (type passive))
        (pin (num 7) (name P1S/P2S) (type power_in))
        (pin (num 8) (name P1G~) (type input))))
    (libpart (lib d1_nebenuhr_shield-cache) (part LED)
      (footprints
        (fp LED*))
      (fields
        (field (name Reference) D)
        (field (name Value) LED))
      (pins
        (pin (num 1) (name K) (type passive))
        (pin (num 2) (name A) (type passive))))
    (libpart (lib d1_nebenuhr_shield-cache) (part R)
      (footprints
        (fp R_*)
        (fp R_*))
      (fields
        (field (name Reference) R)
        (field (name Value) R))
      (pins
        (pin (num 1) (name ~) (type passive))
        (pin (num 2) (name ~) (type passive))))
    (libpart (lib d1_nebenuhr_shield-cache) (part Screw_Terminal_01x01)
      (footprints
        (fp Connector*Terminal*Block*:*)
        (fp TerminalBlock*))
      (fields
        (field (name Reference) J)
        (field (name Value) Screw_Terminal_01x01))
      (pins
        (pin (num 1) (name Pin_1) (type passive))))
    (libpart (lib d1_nebenuhr_shield-cache) (part Screw_Terminal_01x02)
      (footprints
        (fp Connector*Terminal*Block*:*)
        (fp TerminalBlock*))
      (fields
        (field (name Reference) J)
        (field (name Value) Screw_Terminal_01x02))
      (pins
        (pin (num 1) (name Pin_1) (type passive))
        (pin (num 2) (name Pin_2) (type passive)))))
  (libraries
    (library (logical d1_nebenuhr_shield-cache)
      (uri /home/cl/projects/d1_nebenuhr_shield/d1_nebenuhr_shield-cache.lib)))
  (nets
    (net (code 1) (name "Net-(Q1-Pad1)")
      (node (ref R2) (pin 2))
      (node (ref Q1) (pin 1)))
    (net (code 2) (name "Net-(Q3-Pad1)")
      (node (ref Q3) (pin 1))
      (node (ref R6) (pin 1)))
    (net (code 3) (name Factory-Reset-Button)
      (node (ref S1) (pin 1))
      (node (ref J6) (pin 5)))
    (net (code 4) (name Pause-On-Signal)
      (node (ref R9) (pin 2))
      (node (ref J7) (pin 2)))
    (net (code 5) (name "Net-(J3-Pad2)")
      (node (ref Q2) (pin 2))
      (node (ref J3) (pin 2)))
    (net (code 8) (name "Net-(J3-Pad1)")
      (node (ref Q2) (pin 6))
      (node (ref J3) (pin 1)))
    (net (code 9) (name +18V)
      (node (ref R3) (pin 2))
      (node (ref R1) (pin 2))
      (node (ref R5) (pin 1))
      (node (ref Q2) (pin 7)))
    (net (code 10) (name /+3.3V)
      (node (ref J7) (pin 1)))
    (net (code 11) (name H-Bridge-B)
      (node (ref Q3) (pin 3))
      (node (ref Q2) (pin 5))
      (node (ref Q2) (pin 4))
      (node (ref R5) (pin 2)))
    (net (code 12) (name H-Bridge-A)
      (node (ref Q1) (pin 3))
      (node (ref Q2) (pin 1))
      (node (ref Q2) (pin 8))
      (node (ref R1) (pin 1)))
    (net (code 13) (name /D0)
      (node (ref J7) (pin 6)))
    (net (code 14) (name /D4)
      (node (ref J6) (pin 3)))
    (net (code 15) (name /D3)
      (node (ref J6) (pin 4)))
    (net (code 16) (name /RX)
      (node (ref J6) (pin 7)))
    (net (code 17) (name /TX)
      (node (ref J6) (pin 8)))
    (net (code 18) (name /A0)
      (node (ref J7) (pin 7)))
    (net (code 19) (name /RST)
      (node (ref J7) (pin 8)))
    (net (code 20) (name "Net-(J1-Pad1)")
      (node (ref J1) (pin 1))
      (node (ref R3) (pin 1)))
    (net (code 21) (name Pause-Button)
      (node (ref J7) (pin 5))
      (node (ref J5) (pin 2)))
    (net (code 22) (name GND)
      (node (ref Q4) (pin 2))
      (node (ref J5) (pin 1))
      (node (ref Q5) (pin 2))
      (node (ref Q3) (pin 2))
      (node (ref Q1) (pin 2))
      (node (ref J6) (pin 2))
      (node (ref S1) (pin 2))
      (node (ref Q2) (pin 3)))
    (net (code 23) (name "Net-(Q4-Pad1)")
      (node (ref R9) (pin 1))
      (node (ref Q4) (pin 1)))
    (net (code 24) (name "Net-(D1-Pad1)")
      (node (ref Q4) (pin 3))
      (node (ref D1) (pin 1)))
    (net (code 25) (name "Net-(Q5-Pad1)")
      (node (ref Q5) (pin 1))
      (node (ref R10) (pin 1)))
    (net (code 26) (name "Net-(D2-Pad1)")
      (node (ref Q5) (pin 3))
      (node (ref D2) (pin 1)))
    (net (code 27) (name +5V)
      (node (ref J6) (pin 1))
      (node (ref R7) (pin 1))
      (node (ref R8) (pin 1)))
    (net (code 28) (name Pause-Off-Signal)
      (node (ref R10) (pin 2))
      (node (ref J7) (pin 3)))
    (net (code 29) (name H-Bridge-B-Signal)
      (node (ref R6) (pin 2))
      (node (ref J6) (pin 6)))
    (net (code 30) (name "Net-(D1-Pad2)")
      (node (ref D1) (pin 2))
      (node (ref R7) (pin 2)))
    (net (code 31) (name "Net-(D2-Pad2)")
      (node (ref D2) (pin 2))
      (node (ref R8) (pin 2)))
    (net (code 32) (name H-Bridge-A-Signal)
      (node (ref R2) (pin 1))
      (node (ref J7) (pin 4)))))