(module 2pin_screw_terminal (layer F.Cu) (tedit 5B2B5FE4)
  (descr "2 pin screw terminal")
  (fp_text reference TERM** (at 0 1.27) (layer F.SilkS)
    (effects (font (size 1 1) (thickness 0.15)))
  )
  (fp_text value "2pin screw terminal" (at 0 -0.5) (layer F.Fab)
    (effects (font (size 1 1) (thickness 0.15)))
  )
  (fp_text user Pin2 (at 2 4) (layer F.SilkS)
    (effects (font (size 0.7 0.7) (thickness 0.15)))
  )
  (fp_text user Pin1 (at -2 4) (layer F.SilkS)
    (effects (font (size 0.7 0.7) (thickness 0.15)))
  )
  (fp_line (start -3.5 7) (end 3.5 7) (layer F.SilkS) (width 0.05))
  (fp_line (start -3.5 4.5) (end 3.5 4.5) (layer F.SilkS) (width 0.05))
  (fp_line (start 0 2.5) (end 3.5 2.5) (layer F.SilkS) (width 0.15))
  (fp_line (start 3.5 2.5) (end 3.5 9.5) (layer F.SilkS) (width 0.15))
  (fp_line (start 3.5 9.5) (end -3.5 9.5) (layer F.SilkS) (width 0.15))
  (fp_line (start -3.5 9.5) (end -3.5 2.5) (layer F.SilkS) (width 0.15))
  (fp_line (start -3.5 2.5) (end 0 2.5) (layer F.SilkS) (width 0.15))
  (pad 1 thru_hole circle (at -1.725 5.81) (size 2 2) (drill 1) (layers *.Cu *.Mask))
  (pad 2 thru_hole circle (at 1.725 5.81) (size 2 2) (drill 1) (layers *.Cu *.Mask))
)
